{
  "wheezy": {
    "major-version": "7",
    "support": "lts",
    "contact": "debian-lts@lists.debian.org"
  },
  "jessie": {
    "major-version": "8",
    "support": "security",
    "contact": "team@security.debian.org"
  },
  "stretch": {
    "major-version": "9",
    "support": "security",
    "contact": "team@security.debian.org"
  },
  "buster": {
    "major-version": "10",
    "support": "none",
    "contact": ""
  },
  "bullseye": {
    "major-version": "11",
    "support": "none",
    "contact": ""
  }
}
